Location,Name,Frequency,Duplex,Offset,Tone,rToneFreq,cToneFreq,DtcsCode,DtcsPolarity,Mode,TStep,Skip,Comment,URCALL,RPT1CALL,RPT2CALL,DVCODE
17,dPMR 01,446.003125,,0.000000,,88.5,88.5,023,NN,NFM,5.00,,,,,,
18,dPMR 02,446.009375,,0.000000,,88.5,88.5,023,NN,NFM,5.00,,,,,,
19,dPMR 03,446.015625,,0.000000,,88.5,88.5,023,NN,NFM,5.00,,,,,,
20,dPMR 04,446.021875,,0.000000,,88.5,88.5,023,NN,NFM,5.00,,,,,,
21,dPMR 05,446.028125,,0.000000,,88.5,88.5,023,NN,NFM,5.00,,,,,,
22,dPMR 06,446.034375,,0.000000,,88.5,88.5,023,NN,NFM,5.00,,,,,,
23,dPMR 07,446.040625,,0.000000,,88.5,88.5,023,NN,NFM,5.00,,,,,,
24,dPMR 08,446.046875,,0.000000,,88.5,88.5,023,NN,NFM,5.00,,,,,,
25,dPMR 09,446.053125,,0.000000,,88.5,88.5,023,NN,NFM,5.00,,,,,,
26,dPMR 10,446.059375,,0.000000,,88.5,88.5,023,NN,NFM,5.00,,,,,,
27,dPMR 11,446.065625,,0.000000,,88.5,88.5,023,NN,NFM,5.00,,,,,,
28,dPMR 12,446.071875,,0.000000,,88.5,88.5,023,NN,NFM,5.00,,,,,,
29,dPMR 13,446.078125,,0.000000,,88.5,88.5,023,NN,NFM,5.00,,,,,,
30,dPMR 14,446.084375,,0.000000,,88.5,88.5,023,NN,NFM,5.00,,,,,,
31,dPMR 15,446.090625,,0.000000,,88.5,88.5,023,NN,NFM,5.00,,,,,,
32,dPMR 16,446.096875,,0.000000,,88.5,88.5,023,NN,NFM,5.00,,,,,,
33,dPMR 17,446.103125,,0.000000,,88.5,88.5,023,NN,NFM,5.00,,,,,,
34,dPMR 18,446.109375,,0.000000,,88.5,88.5,023,NN,NFM,5.00,,,,,,
35,dPMR 19,446.115625,,0.000000,,88.5,88.5,023,NN,NFM,5.00,,,,,,
36,dPMR 20,446.121875,,0.000000,,88.5,88.5,023,NN,NFM,5.00,,,,,,
37,dPMR 21,446.128125,,0.000000,,88.5,88.5,023,NN,NFM,5.00,,,,,,
38,dPMR 22,446.134375,,0.000000,,88.5,88.5,023,NN,NFM,5.00,,,,,,
39,dPMR 23,446.140625,,0.000000,,88.5,88.5,023,NN,NFM,5.00,,,,,,
40,dPMR 24,446.146875,,0.000000,,88.5,88.5,023,NN,NFM,5.00,,,,,,
41,dPMR 25,446.153125,,0.000000,,88.5,88.5,023,NN,NFM,5.00,,,,,,
42,dPMR 26,446.159375,,0.000000,,88.5,88.5,023,NN,NFM,5.00,,,,,,
43,dPMR 27,446.165625,,0.000000,,88.5,88.5,023,NN,NFM,5.00,,,,,,
44,dPMR 28,446.171875,,0.000000,,88.5,88.5,023,NN,NFM,5.00,,,,,,
45,dPMR 29,446.178125,,0.000000,,88.5,88.5,023,NN,NFM,5.00,,,,,,
46,dPMR 30,446.184375,,0.000000,,88.5,88.5,023,NN,NFM,5.00,,,,,,
47,dPMR 31,446.190625,,0.000000,,88.5,88.5,023,NN,NFM,5.00,,,,,,
48,dPMR 32,446.196875,,0.000000,,88.5,88.5,023,NN,NFM,5.00,,,,,,
